^C:\USERS\SAURON\SOURCE\REPOS\UNO\UNO\RELEASE\CARTA.OBJ|C:\USERS\SAURON\SOURCE\REPOS\UNO\UNO\RELEASE\FRACAO.OBJ|C:\USERS\SAURON\SOURCE\REPOS\UNO\UNO\RELEASE\GAME.OBJ|C:\USERS\SAURON\SOURCE\REPOS\UNO\UNO\RELEASE\PCH.OBJ|C:\USERS\SAURON\SOURCE\REPOS\UNO\UNO\RELEASE\PLAYER.OBJ|C:\USERS\SAURON\SOURCE\REPOS\UNO\UNO\RELEASE\PROB.OBJ|C:\USERS\SAURON\SOURCE\REPOS\UNO\UNO\RELEASE\PROPERTIES.RES|C:\USERS\SAURON\SOURCE\REPOS\UNO\UNO\RELEASE\TIMER.OBJ|C:\USERS\SAURON\SOURCE\REPOS\UNO\UNO\RELEASE\UNO.OBJ
C:\PROGRAM FILES (X86)\WINDOWS KITS\10\LIB\10.0.17763.0\UM\X86\KERNEL32.LIB
C:\PROGRAM FILES (X86)\WINDOWS KITS\10\LIB\10.0.17763.0\UM\X86\USER32.LIB
C:\PROGRAM FILES (X86)\WINDOWS KITS\10\LIB\10.0.17763.0\UM\X86\GDI32.LIB
C:\PROGRAM FILES (X86)\WINDOWS KITS\10\LIB\10.0.17763.0\UM\X86\WINSPOOL.LIB
C:\PROGRAM FILES (X86)\WINDOWS KITS\10\LIB\10.0.17763.0\UM\X86\COMDLG32.LIB
C:\PROGRAM FILES (X86)\WINDOWS KITS\10\LIB\10.0.17763.0\UM\X86\ADVAPI32.LIB
C:\PROGRAM FILES (X86)\WINDOWS KITS\10\LIB\10.0.17763.0\UM\X86\SHELL32.LIB
C:\PROGRAM FILES (X86)\WINDOWS KITS\10\LIB\10.0.17763.0\UM\X86\OLE32.LIB
C:\PROGRAM FILES (X86)\WINDOWS KITS\10\LIB\10.0.17763.0\UM\X86\OLEAUT32.LIB
C:\PROGRAM FILES (X86)\WINDOWS KITS\10\LIB\10.0.17763.0\UM\X86\UUID.LIB
C:\PROGRAM FILES (X86)\WINDOWS KITS\10\LIB\10.0.17763.0\UM\X86\ODBC32.LIB
C:\PROGRAM FILES (X86)\WINDOWS KITS\10\LIB\10.0.17763.0\UM\X86\ODBCCP32.LIB
C:\USERS\SAURON\SOURCE\REPOS\UNO\UNO\RELEASE\PROPERTIES.RES
C:\USERS\SAURON\SOURCE\REPOS\UNO\UNO\RELEASE\CARTA.OBJ
C:\USERS\SAURON\SOURCE\REPOS\UNO\UNO\RELEASE\FRACAO.OBJ
C:\USERS\SAURON\SOURCE\REPOS\UNO\UNO\RELEASE\GAME.OBJ
C:\USERS\SAURON\SOURCE\REPOS\UNO\UNO\RELEASE\PCH.OBJ
C:\USERS\SAURON\SOURCE\REPOS\UNO\UNO\RELEASE\PLAYER.OBJ
C:\USERS\SAURON\SOURCE\REPOS\UNO\UNO\RELEASE\PROB.OBJ
C:\USERS\SAURON\SOURCE\REPOS\UNO\UNO\RELEASE\TIMER.OBJ
C:\USERS\SAURON\SOURCE\REPOS\UNO\UNO\RELEASE\UNO.OBJ
C:\WINDOWS\GLOBALIZATION\SORTING\SORTDEFAULT.NLS
C:\PROGRAM FILES (X86)\MICROSOFT VISUAL STUDIO\2017\COMMUNITY\VC\TOOLS\MSVC\14.16.27023\BIN\HOSTX86\X86\C2.DLL
C:\PROGRAM FILES (X86)\MICROSOFT VISUAL STUDIO\2017\COMMUNITY\VC\TOOLS\MSVC\14.16.27023\LIB\X86\LIBCPMT.LIB
C:\PROGRAM FILES (X86)\MICROSOFT VISUAL STUDIO\2017\COMMUNITY\VC\TOOLS\MSVC\14.16.27023\LIB\X86\LIBCMT.LIB
C:\PROGRAM FILES (X86)\MICROSOFT VISUAL STUDIO\2017\COMMUNITY\VC\TOOLS\MSVC\14.16.27023\LIB\X86\OLDNAMES.LIB
C:\PROGRAM FILES (X86)\MICROSOFT VISUAL STUDIO\2017\COMMUNITY\VC\TOOLS\MSVC\14.16.27023\LIB\X86\LIBVCRUNTIME.LIB
C:\PROGRAM FILES (X86)\WINDOWS KITS\10\LIB\10.0.17763.0\UCRT\X86\LIBUCRT.LIB
C:\PROGRAM FILES (X86)\MICROSOFT VISUAL STUDIO\2017\COMMUNITY\VC\TOOLS\MSVC\14.16.27023\BIN\HOSTX86\X86\1033\LINKUI.DLL
C:\PROGRAM FILES (X86)\WINDOWS KITS\10\BIN\10.0.17763.0\X86\RC.EXE
C:\PROGRAM FILES (X86)\MICROSOFT VISUAL STUDIO\2017\COMMUNITY\VC\TOOLS\MSVC\14.16.27023\BIN\HOSTX86\X86\CVTRES.EXE
C:\WINDOWS\SYSTEM32\TZRES.DLL
C:\PROGRAM FILES (X86)\MICROSOFT VISUAL STUDIO\2017\COMMUNITY\VC\TOOLS\MSVC\14.16.27023\BIN\HOSTX86\X86\1033\CLUI.DLL
