^C:\Users\Sauron\source\repos\Uno\Uno\Uno.vcxproj
C:\Users\Sauron\source\repos\Uno\Release\Uno.ipdb
C:\Users\Sauron\source\repos\Uno\Release\Uno.iobj
^C:\Users\Sauron\source\repos\Uno\Uno\Uno.vcxproj
C:\Users\Sauron\source\repos\Uno\Release\Uno.ipdb
C:\Users\Sauron\source\repos\Uno\Release\Uno.iobj
^C:\Users\Sauron\source\repos\Uno\Uno\Uno.vcxproj
C:\Users\Sauron\source\repos\Uno\Release\Uno.ipdb
C:\Users\Sauron\source\repos\Uno\Release\Uno.iobj
